<?xml version="1.0" encoding="UTF-8" standalone="no"?>
<!-- Created with Inkscape (http://www.inkscape.org/) -->

<svg
   version="1.1"
   id="svg1616"
   width="199"
   height="190"
   viewBox="0 0 199 190"
   sodipodi:docname="inverted-logo.svg"
   inkscape:version="1.1.2 (0a00cf5339, 2022-02-04)"
   xmlns:inkscape="http://www.inkscape.org/namespaces/inkscape"
   xmlns:sodipodi="http://sodipodi.sourceforge.net/DTD/sodipodi-0.dtd"
   xmlns="http://www.w3.org/2000/svg"
   xmlns:svg="http://www.w3.org/2000/svg">
  <defs
     id="defs1620" />
  <sodipodi:namedview
     id="namedview1618"
     pagecolor="#ffffff"
     bordercolor="#666666"
     borderopacity="1.0"
     inkscape:pageshadow="2"
     inkscape:pageopacity="0.0"
     inkscape:pagecheckerboard="0"
     showgrid="false"
     inkscape:zoom="3.3157895"
     inkscape:cx="78.714286"
     inkscape:cy="105.25397"
     inkscape:window-width="1920"
     inkscape:window-height="994"
     inkscape:window-x="0"
     inkscape:window-y="0"
     inkscape:window-maximized="1"
     inkscape:current-layer="g1622" />
  <g
     inkscape:groupmode="layer"
     inkscape:label="Image"
     id="g1622">
    <path
       d="m 79.661224,165.87187 c -1.889062,-9.08214 -2.153675,-23.53349 4.018495,-30.94507 0,0 2.399152,-4.44819 4.159907,-5.96934 4.269433,0.87468 3.036807,0.78727 10.824048,0.75069 3.578696,0 7.285016,-0.41653 8.236266,-0.92562 1.40466,-0.75176 2.35985,-0.002 5.08512,3.99174 5.11495,7.49557 6.9835,14.02499 7.0212,24.53466 0.92469,20.29165 -7.24698,20.98064 -18.96735,31.46877 0,0.51175 -0.449996,0.93045 -0.999996,0.93045 -13.04303,-9.21114 -15.458039,-10.16606 -19.37769,-23.83628 z m -40.62235,7.70412 c -21.26871,-0.58768 -24.990852,-8.17684 -22.590286,-20.2657 0.83538,-11.72324 3.658424,-24.49041 6.633749,-28.54611 -0.514832,-4.04599 10.19394,0.84205 21.845337,4.19499 4.3507,1.25394 11.3397,2.09846 20.44051,2.46995 12.09758,0.4938 13.76506,0.76575 13.31626,2.17177 -0.28217,0.884 -1.19195,3.451 -2.02172,5.70443 -0.82978,2.25343 -2.00378,8.10343 -2.6089,13 -1.50278,12.16031 -1.324175,12.65876 -3.449318,14.42317 -4.403422,9.53318 -22.58421,8.25217 -31.565632,6.84747 z m 99.499996,-1.88704 c -3.3,-1.04877 -7.447,-3.161 -9.21555,-4.69383 -3.0171,-2.61497 -3.27887,-3.3815 -4.24137,-12.42014 -0.5642,-5.29824 -1.88346,-12.38878 -2.93168,-15.75674 l -1.90587,-6.12357 2.14723,-0.43155 c 1.18098,-0.23735 7.09724,-0.66757 13.14724,-0.95603 11.25728,-0.53675 16.14671,-1.46001 22.75854,-4.29744 3.13452,-1.34516 4.41854,-1.41522 7.73369,-0.42197 5.07169,1.50693 9.77814,10.50783 10.97265,13.26057 3.25092,7.55696 4.81044,13.24874 5.56779,20.32071 l 0.6717,6.27228 c -3.65846,2.03315 -11.59839,3.82585 -11.59839,3.82585 l -22.79537,3.45631 c 0,0 -3.98241,-0.0233 -10.31061,-2.03445 z M 55.801014,125.71039 c -7.20916,-0.92412 -14.76214,-4.07318 -14.76214,-4.07318 l -14.92168,-5.968 C 9.8698229,107.55774 2.5907983,86.24028 2.9137588,75.258151 c -0.19023,2.96363 -1.71619,-6.476189 -1.80071,-11.139485 -0.0626,-3.454609 0.3239,-4.270835 2.48968,-5.25763 0,0 -0.3056217,-0.483787 10.0508252,-3.497292 9.23802,-2.668602 25.85897,-4.247719 29.78115,-2.829438 15.53837,2.066297 44.071598,23.588008 49.08052,38.212193 -0.24959,0.40384 -2.48386,1.33366 -4.96505,2.066268 -5.887113,3.630385 -6.837954,6.089642 -8.54929,9.470003 -2.68973,5.27574 -2.50322,11.10954 0.53804,16.82936 4.229099,9.19255 2.327221,5.36883 -1.94616,6.5089 -1.226775,0.13553 -12.65052,1.26115 -21.7917,0.0894 z m 66.237856,0.33162 c -1.375,-0.21657 -3.52466,-0.61691 -4.77702,-0.88965 l -2.27701,-0.49587 2.42897,-4.22417 c 1.33594,-2.32329 2.72558,-5.64901 3.0881,-7.39049 0.89534,-4.30114 -1.09654,-11.26246 -4.1457,-14.488562 -1.32475,-3.75147 -1.80306,-3.053843 -4.63179,-5.670803 -1.27295,-1.195873 -3.18545,-2.20984 -4.25,-2.253261 -1.06455,-0.04342 -1.37305,-0.305921 -0.68555,-0.583334 0.6875,-0.277412 1.25,-0.989989 1.25,-1.583505 14.45344,-18.234243 31.53014,-35.564424 51.74052,-35.991485 15.18661,-0.291178 25.39971,3.50407 33.25948,6.839076 2.24421,3.082397 4.97931,4.272099 5,7.55871 0.93389,8.035133 -2.29144,21.009732 -5.65755,25.776051 -10.21349,19.729283 -12.92674,19.986463 -23.00397,24.929753 -11.59105,4.11112 -13.61823,5.31281 -29.83845,8.1797 -5.26043,0.81934 -13.2874,0.95138 -17.5,0.28785 z M 96.046031,89.770272 C 87.175746,76.329449 71.221635,65.38088 65.428234,52.123341 66.823988,23.269169 93.638889,2.4303328 99.128983,6.0287599 120.41443,4.8355988 132.26086,35.629886 134.3369,53.592125 c -7.61011,14.411592 -23.27193,23.067172 -30.50171,36.366438 -2.00998,-0.590949 -6.096187,-1.21903 -7.789159,-0.188291 z"
       style="fill:#7f007e"
       id="path1878"
       sodipodi:nodetypes="ccccscccccccccsssscccsssscsssccscccssccccccccccccsssssssccsscccccccsscccccc" />
    <g
       id="g1719"
       transform="translate(0.35079019,0.43771022)">
      <path
         style="fill:#cf9fcf"
         d="m 198.07895,65.416667 c 0.048,-1.164943 0.28494,-1.4019 0.60416,-0.604167 0.28887,0.721875 0.25335,1.584375 -0.0789,1.916667 -0.3323,0.332291 -0.56864,-0.258334 -0.52522,-1.3125 z"
         id="path1733"
         sodipodi:nodetypes="csscc" />
      <path
         style="fill:#fdd664;stroke-width:1.13692"
         d="m 91.36461,131.43544 c -9.144669,-3.37079 -14.704762,-11.78461 -14.673444,-22.2046 0.06973,-23.198936 29.365984,-31.74617 41.434704,-12.088652 2.44781,3.987022 2.95752,6.099272 2.95752,12.256132 0,6.09379 -0.53234,8.34691 -2.94402,12.46042 -5.12998,8.75006 -17.25343,13.08634 -26.77476,9.5767 z"
         id="path1731" />
    </g>
  </g>
</svg>
