<?xml version="1.0" encoding="UTF-8" standalone="no"?>
<svg
   id="svg"
   version="1.1"
   width="312.19876"
   height="287.36151"
   viewBox="0 0 312.19876 287.36151"
   sodipodi:docname="Logo Merienda Barcelona.svg"
   inkscape:version="1.2.2 (b0a8486541, 2022-12-01)"
   inkscape:export-filename="Logo Merienda Barcelona.png"
   inkscape:export-xdpi="100"
   inkscape:export-ydpi="100"
   xmlns:inkscape="http://www.inkscape.org/namespaces/inkscape"
   xmlns:sodipodi="http://sodipodi.sourceforge.net/DTD/sodipodi-0.dtd"
   xmlns="http://www.w3.org/2000/svg"
   xmlns:svg="http://www.w3.org/2000/svg">
  <defs
     id="defs14" />
  <sodipodi:namedview
     id="namedview12"
     pagecolor="#ffffff"
     bordercolor="#666666"
     borderopacity="1.0"
     inkscape:pageshadow="2"
     inkscape:pageopacity="0.0"
     inkscape:pagecheckerboard="0"
     showgrid="false"
     inkscape:zoom="1.61"
     inkscape:cx="70.496897"
     inkscape:cy="84.782611"
     inkscape:window-width="1920"
     inkscape:window-height="994"
     inkscape:window-x="0"
     inkscape:window-y="0"
     inkscape:window-maximized="1"
     inkscape:current-layer="g28473"
     fit-margin-top="0"
     fit-margin-left="0"
     fit-margin-right="0"
     fit-margin-bottom="0"
     showguides="false"
     inkscape:showpageshadow="2"
     inkscape:deskcolor="#d1d1d1" />
  <g
     id="svgg"
     transform="matrix(1.0064062,0,0,1.0064062,327.68864,-384.49244)">
    <g
       id="g28473">
      <ellipse
         style="fill:#d15b3f;fill-opacity:1;stroke:none;stroke-width:6.2513;stroke-linecap:butt;stroke-linejoin:bevel;stroke-dasharray:none;stroke-opacity:1;paint-order:stroke fill markers"
         id="path2957"
         cx="-174.14409"
         cy="527.7453"
         rx="148.23415"
         ry="142.6367" />
      <g
         id="g4018"
         transform="translate(194.48288,368.8284)">
        <path
           d="m -277.29969,38.693622 c -5.33128,-0.295694 -10.19477,7.770458 -10.7189,12.031003 -0.40169,2.677675 -2.18917,1.979378 -3.40598,2.708 -11.913,1.822 -20.822,11.776 -20.436,22.831 0.078,2.248 0,0 0,0 v 0 c 0,0 -10.23855,8.739182 -6.618,20.052996 0.854,2.373 1.128,4.415269 7.197,3.438269 7.405,-1.193 9.216,-1.689 9.344,-2.560996 0.057,-0.39 0.469,-1.097 0.914,-1.571 0.445,-0.474 0.81,-1 0.81,-1.168 0,-0.168 0.922,-1.11 2.05,-2.093 2.061,-1.796 18.653,-18.485 18.653,-18.762 0,-0.227 1.722,-1.613 2.023,-1.627 0.147,-0.008 2.004,0.260269 4.128,-1.834731 2.124,-2.095 4.289,-6.095269 4.812,-6.462269 l 0.951,-0.666 -1.001,-0.017 c 1.46905,-0.165977 8.24589,-5.749414 5.793,-2.309 l 1.315,-0.206 c 0.723,-0.113 2.501,-0.314 3.951,-0.448 2.355,-0.216 2.641,-0.332 2.673,-1.09 0.071,-1.654 -0.052,-4.389 -0.281,-6.269 -0.163,-1.336 -0.104,-1.826 0.197,-1.639 0.27,0.166 0.343,0.04 0.197,-0.341 -0.128,-0.334 -0.485,-0.606 -0.794,-0.606 -0.309,0 -0.522,-0.22 -0.474,-0.489 0.143,-0.802 -2.053,-4.978 -2.84,-5.399 -0.401,-0.214 -0.728,-0.638 -0.728,-0.941 0,-1.178685 -8.47764,-6.524437 -10.84252,-6.126679 m 7.66724,27.772055 c -3.259,0.921 -4.73923,1.679095 -11.43206,9.019011 -0.43838,0.480763 -21.82129,19.827354 -20.98721,20.233517 23.31311,-3.198377 25.06992,4.457946 36.57455,0.582096 0.135,1.033 0.48,1.968 0.767,2.078 0.662,0.254 6.389,-2.076 7.454,-3.033 0.646,-0.58 0.907,-0.627 1.327,-0.237 0.373,0.346 0.448,0.351 0.261,0.019 -0.144,-0.257 0.419,-1.367 1.251,-2.467 9.469,-12.511 0.658,-31.571269 -13.24,-27.644269 m 8.426,6.836538 c 0.645,0.493 1.451,1.122 1.792,1.398 0.341,0.277 0.957,0.695 1.367,0.931 1.56,0.894 3.192,4.845 2.002,4.845 -0.511,0 -3.012,-3.788 -3.012,-4.562 0,-0.233 -1.011,-0.925 -2.247,-1.54 -3.7827,-1.683753 -2.31894,-2.894939 0.098,-1.072 m 6.61,7.625731 c 0.282,1.137 0.228,1.603 -0.247,2.144 -0.333,0.38 -0.733,1.104 -0.887,1.609 -0.463,1.519 -0.974,2.362269 -0.584,0.678269 0.199,-0.859 0.256,-2.151 0.126,-2.87 -0.354,-1.961 1.097,-3.560269 1.592,-1.561269"
           style="fill:#b07c33;fill-rule:evenodd;stroke:none"
           id="path38"
           sodipodi:nodetypes="cccccccccsssscscccccccccssccsccscccccccccccsscccccccc" />
        <path
           d="m -335.99623,19.534672 c -12.23017,2.829357 -11.30104,3.483314 -13.9963,10.836443 -1.132,0.296 -1.011,1.992 1.169,16.316 2.339,15.364005 3.68595,13.590866 8.89395,18.619856 5.071,4.899 5.003,4.87001 4.72,1.959 -0.364,-3.73899 -1.789,-14.303995 -1.968,-14.593995 -0.092,-0.149 -0.442,-2.381 -0.776,-4.96 -0.335,-2.579 -1.017,-7.19 -1.517,-10.247 -1.63,-9.975 2.099,-14.394 10.077,-11.94 1.038,0.319 1.086,0.288 0.694,-0.446 -1.018,-1.901 -4.16965,-6.218304 -7.29665,-5.544304 m 29.31034,5.752892 c -1.0582,-4.418821 -4.79272,0.46606 -5.52372,0.83506 -0.70739,0.450125 -1.483,0.67 -1.671,0.67 -2.565,0 -4.0608,9.850385 -7.83169,24.848412 -0.10811,0.429973 -1.04086,3.600042 -2.072,7.046005 -1.03086,3.445032 -2.53938,8.788892 -3.352,11.87599 l -1.477,5.61101 2.025,1.86199 c 3.145,2.891 6.64672,3.67894 6.70872,2.86095 0.081,-1.07 2.834,-10.31201 3.208,-10.77001 0.189,-0.231 0.404,-0.859 0.479,-1.39599 0.074,-0.53701 0.288,-1.08701 0.474,-1.22301 0.361,-0.262 0.614,-1.1 2.826,-9.323995 0.781,-2.9 1.577,-5.625 1.77,-6.054 0.35,-0.779 1.386,-4.67 3.451,-12.957 1.214,-4.873 3.32954,-4.922358 5.48454,-5.969358 2.06,-1.001 4.86015,1.523904 6.13615,2.359904 0.907,0.594 0.47834,-9.372423 0.89934,-10.158423 1.181,-2.208 -6.91734,-0.805535 -11.53434,-0.117535 m -73.39305,11.152393 c -0.82077,0.120194 -5.38546,-1.238981 -5.76646,0.598905 -9.55221,5.859231 -8.62349,16.39974 0.67049,24.578998 0.528,0.435 2.279,1.935 3.89,3.332 1.611,1.39701 4.512,3.845 6.445,5.441 1.934,1.596 3.604,3.00401 3.711,3.13001 0.108,0.12599 1.514,1.34299 3.125,2.70499 1.612,1.36201 23.64325,19.072011 24.80725,20.064001 7.267,6.198009 11.08608,-3.85689 -5.47792,-17.39188 -4.834,-3.95001 -9.073,-7.50201 -9.42,-7.893 -0.348,-0.39101 -0.737,-0.71101 -0.866,-0.71101 -0.129,0 -0.899,-0.6 -1.712,-1.332 -2.979,-2.685 -12.954,-11.167995 -13.131,-11.167995 -0.101,0 -0.782,-0.572 -1.514,-1.27 -0.732,-0.698 -2.407,-2.207 -3.722,-3.354 -7.726,-6.738 0.89464,-16.689019 10.32864,-11.847019 1.588,0.815 1.401,-0.088 -0.435,-2.097 -2.575,-2.817 -7.474,-4.065 -10.933,-2.786 m 83.90536,5.606019 c -0.125,0.39 -0.387,1.06 -0.581,1.49 -0.639,1.411 -2.701,7.972 -2.701,8.591 0,0.541 0.106,0.538 0.969,-0.028 0.563,-0.369 0.955,-0.987 0.936,-1.474 -0.054,-1.395 1.351,-7.053 1.889,-7.605 0.604,-0.62 0.642,-1.11 0.11,-1.439 -0.217,-0.134 -0.496,0.076 -0.622,0.465"
           style="fill:#f2e7be;fill-rule:evenodd;stroke:none"
           id="path192"
           sodipodi:nodetypes="cccccscccccccssssccccccccccccccccsccccscscsscsccccsccccc" />
        <g
           id="g3303">
          <g
             id="g3677">
            <path
               d="m -245.38742,17.038424 c -0.433,0.175 -1.743,3.945 -4.597,13.223 -0.594,1.933 -1.418,4.543 -1.831,5.799 -1.125,3.423 0.457,4.711 2.592,2.111 2.322,-2.828 10.894,-15.99 11.317,-17.378 0.641,-2.099 -4.816,-4.837 -7.481,-3.755 m -82.09389,3.710879 c -6.492,-3.413 -14.87211,8.366121 -13.36411,16.231121 0.198,1.031 0.713,4.16 1.144,6.953 3.56,23.038996 4.58727,23.903841 3.67627,23.903841 -0.479,0 -10.23327,-7.231114 -9.99827,-7.466114 0.087,-0.087 -0.248,-0.08 -0.744,0.014 -0.711,0.136 -3.06928,-3.007294 -5.52528,-5.42529 -1.714,-1.686 -4.778,-4.555 -6.811,-6.376 -2.032,-1.82 -5.906,-5.52 -8.608,-8.221 -4.1595,-4.090833 -12.67754,-0.736056 -15.70172,7.150563 -0.967,2.931 -0.439,3.51 15.256,16.713996 9.401,7.909 10.511,8.849 11.886,10.061 0.66,0.582 3.045,2.587 5.301,4.456 6.71224,6.400382 20.03251,12.393612 14.114,18.886 l -2.316,2.525 2.164,1.68 c 2.864,2.224 3.218,2.277 8.454,1.253 5.63,-1.101 5.368,-0.907 4.7,-3.482 -3.98925,-11.78589 7.64849,-22.280921 -4.78735,-19.278254 -2.73946,-10.999927 8.96707,-20.158428 2.36435,-25.457742 -0.232,-2.724 8.04959,-19.791451 6.85559,-25.556451 m 62.33941,-5.891549 c -1.279,0.516 -1.328,0.787 -0.918,5.088 0.466,4.898 1.79,6.728 3.032,4.192 0.358,-0.731 1.658,-7.189 1.655,-8.223 0,-0.259 -2.464,-1.5 -2.82,-1.42 -0.061,0.014 -0.488,0.177 -0.949,0.363 m 28.911,5.778 c -17.514,10.799 -21.479,13.869 -19.092,14.785 0.523,0.201 20.453,-6.02 22.084,-6.893 0.369,-0.198 1.352,-0.525 2.186,-0.728 1.799,-0.437 5.12,-1.653 6.164,-2.256 2.131,-1.23 -2.215,-8.377 -5.063,-8.326 -0.417,0.008 -3.242,1.546 -6.279,3.418 m -67.51318,1.291019 c -0.827,1.051 -0.42804,5.678721 -1.68099,8.052046 0.436,1.067 -3.5384,8.069083 -4.6434,10.297083 -2.665,5.371 2.77657,5.424852 5.06757,3.133852 0.21,-0.21 0.858,-0.287 1.439,-0.17 1.03,0.206 2.735,-1.227 2.735,-2.297 0,-0.207 0.596,-1.633 1.324,-3.17 2.336,-4.932 6.11913,-11.274078 1.36182,-14.523981 -0.663,-1.947 -4.628,-6.663 -5.268,-6.267 -0.192,0.119 -0.35,0.036 -0.35,-0.184 m -113.66882,3.515712 c -1.289,0.17 -3.16,0.587 -4.156,0.928 -0.997,0.34 -2.271,0.656 -2.832,0.702 -0.561,0.047 -1.02,0.208 -1.02,0.359 0,0.151 -0.527,0.39 -1.172,0.532 -0.645,0.141 -1.172,0.419 -1.172,0.617 0,0.198 -0.132,0.317 -0.293,0.264 -0.353,-0.115 -3.364,1.692 -3.548,2.13 -0.072,0.17 -0.335,0.312 -0.586,0.315 -0.251,0.004 -1.051,0.531 -1.778,1.172 -0.728,0.641 -1.475,1.166 -1.66,1.166 -0.186,0 -0.338,0.168 -0.338,0.373 0,0.205 -0.396,0.786 -0.879,1.292 -6.42231,4.493621 -10.38589,17.007187 -8.868,23.886265 0.319,1.425 0.638,2.107 0.875,1.87 0.206,-0.205 0.597,-0.287 0.871,-0.182 0.273,0.105 2.054,-0.457 3.956,-1.249 6.619,-2.753996 17.96,-7.282996 25.529,-10.194996 10.583,-4.071 10.01,-3.744 10.299,-5.856 0.496,-3.618 2.167,-6.313 5.936,-9.575 l 2.101,-1.818 1.74075,-1.949102 c -0.735,-0.935 -2.398,-3.650269 -3.412,-3.482269 -0.269,0.044 -2.99275,0.866102 -2.99275,0.629102 0,-0.237 -0.161,-0.331 -0.357,-0.21 -0.197,0.121 -0.417,0.042 -0.49,-0.176 -6.32635,-2.266175 -3.29181,-1.035604 -7.008,-1.699 -2.921,-0.306 -5.616,-0.258 -8.746,0.156 m 105.064,4.471269 c -2.554,1.162 -3.117,2.098 -4.31,7.162 -0.544,2.312 -1.25,4.994 -1.568,5.961 -0.522,1.587 -1.163,3.881 -4.308,15.428996 -0.527,1.934 -1.325,4.483 -1.772,5.665 -3.662,9.66 -5.315,15.234 -4.52,15.234 1.524,0 2.888,-2.484 3.111,-5.664 0.544,-7.754 4.228,-14.636 10.46,-19.537996 0.748,-0.588 1.441,-2.188 2.874,-6.634 2.729,-8.466 5.321,-13.606 6.346,-12.581 0.614,0.614 1.318,-0.99 1.318,-3.002 0,-3.207 -3.185,-4.055 -7.631,-2.032 m 63.881,13.34 c -1.826,0.292 -3.594,0.538 -3.929,0.547 -2.103,0.058 -2.425,2.434 -0.432,3.192 1.705,0.649 12.77,1.248 13.713,0.744 0.994,-0.532 1.105,-2.925 0.196,-4.223 -0.733,-1.046 -4.064,-1.136 -9.548,-0.26 M -437.16076,67.48652 c -13.643,6.007 -8.91266,10.3619 -5.11266,18.1679 1.17,2.405 2.526,5.471 3.013,6.814 0.487,1.343 1.05,2.441 1.251,2.441 0.202,0 0.285,0.132 0.186,0.293 -0.1,0.161 0.637,2.118 1.637,4.348 l 1.818,4.055 3.223,1.681 c 3.68,1.919 5.206,2.914 7.089,4.627 0.731,0.664 1.204,0.987 1.051,0.719 -0.152,-0.269 -0.1,-0.488 0.116,-0.488 0.488,0 -0.462,-2.734 -2.987,-8.594 -1.065,-2.471 -0.30053,-5.397243 -0.78753,-6.877243 -2.10109,-2.034593 -0.55991,-2.685937 0.68923,-5.243379 1.46622,-3.001891 1.1383,-3.611378 4.3643,-2.512378 l 1.765,0.601 2.75386,8.439545 c 2.063,4.234005 5.63214,8.805455 6.71214,11.061455 3.491,7.29 3.012,6.91 7.833,6.217 4.113,-0.59 4.628,-0.831 4.489,-2.097 -0.095,-0.862 -2.75946,-10.33646 -10.16646,-25.989459 -3.734,-7.889 -3.939,-8.744 -2.685,-11.197 3.041,-5.944 5.15865,-3.217639 8.68965,4.542361 0.758,1.667 2.99094,5.933005 4.39394,8.833005 2.251,4.65 5.38987,6.499093 11.22787,19.105093 1.427,3.082 2.107,4.039 2.356,3.317 0.069,-0.202 0.069,-0.421 0,-0.486 -0.07,-0.065 0.613,-0.786 1.517,-1.603 1.261,-1.14 6.49254,-6.24546 6.49254,-6.96646 0,-0.066 -2.307,-5.103999 -5.128,-11.195999 -2.82,-6.092 -5.368,-11.758 -5.664,-12.59 -1.403,-3.96 0.119,-7.666 3.149,-7.666 1.533,0 1.91131,-1.298294 -1.05469,-3.724294 -3.196,-2.616 -10.26158,-12.389811 -10.61958,-13.516811 m -93.22327,21.862564 c -5.015,5.167 -7.97356,15.67949 -7.45556,25.32649 0.628,11.703 6.23561,25.30702 6.63861,22.29902 1.21023,5.85894 14.27527,-1.56706 19.43014,-5.77439 8.30177,-6.77578 21.44593,-2.82249 24.93497,-4.78948 2.24381,11.08077 -6.58345,-25.702833 -6.58345,-25.702833 1.75115,-4.180097 -22.34348,-12.508596 -29.45301,-13.984556 -4.831,-0.898 -5.7177,0.777749 -7.5117,2.625749 m 111.809,3.013 c 0.535,1.002 2.013,4.181 3.284,7.065 0.89541,5.555061 -1.08003,10.807096 -1.92704,16.4267 0.526,0.077 31.20761,-3.080896 31.20761,-3.080896 0,0 -23.15232,-17.65962 -24.43432,-18.72262 -1.282,-1.062 -2.761,-2.283 -3.287,-2.712 -0.526,-0.43 -4.86176,-3.61287 -5.60376,-4.24787 -2.101,-1.8 -0.37749,3.139686 0.76051,5.271686 m 2.826,27.177 c -4.411,6.331 -4.328,6.084 -1.897,5.604 1.624,-0.321 1.951,-0.547 2.336,-1.612 m 2.999,-1.418 c -1.359,1.544 -1.566,2.477 -0.49,2.217 0.973,-0.235 8.517,-1.328 17.875,-2.591 3.33,-0.449 6.67,-0.936 7.422,-1.082 0.752,-0.146 1.739,-0.227 2.193,-0.18 1.48,0.155 1.881,-0.9 0.646,-1.7 m 26.132,-4.259 c 0.437,0.74 0.849,1.345 0.917,1.345 0.335,0 -0.819,-2.348 -1.232,-2.506 -0.268,-0.103 -0.129,0.409 0.315,1.161 m -28.008,15.645 c 0.67,0.67 0.855,0.679 1.094,0.055 0.114,-0.297 -0.17,-0.51 -0.725,-0.543 -0.78,-0.048 -0.833,0.023 -0.369,0.488 m -105.084,2.113 c -1.729,0.384 5.547,0.574 4.887,-0.221 -0.568,-0.684 -0.876,-0.67 -4.887,0.221"
               style="fill:#efb555;fill-rule:evenodd;stroke:none"
               id="path1281"
               sodipodi:nodetypes="cccccccccssccsccscccccsccccccscccccccccccccscssccccccscsccccsscccccccccccsccccccsccscccsscccccccccssccccccscccccccccccccccccsccscccccsccccccccccccccccscscccscccccccsc" />
            <path
               d="m -341.71613,16.094677 c -10.829,3.77 -13.712,10.508 -11.355,26.54 1.318,8.969 1.602,8.982 -7.866,-0.352 -8.939,-8.811 -12.621,-10.756 -19.339,-10.217 -2.508,0.201 -2.678,0.159 -4.058,-1.021 -6.933,-5.924 -20.457,-7.993 -30.844,-4.718 -7.46924,3.228064 -14.30302,6.849557 -19.16,13.199 -5.161,6.909 -7.42,13.425 -7.576,21.85399 l -0.093,5.004 -2.342,1.107 c -6.078,2.875 -6.552,8.952 -1.626,20.868 2.963,7.168 3.263,8.791 0.948,5.127 -0.814,-1.289 -1.875,-2.783 -2.357,-3.32 -0.482,-0.537 -1.263,-2.032 -1.736,-3.321 -1.172,-3.196 -3.343,-5.876 -6.647,-8.203 -1.525,-1.074 -3.606,-2.568 -4.625,-3.32 -5.132,-3.791 -14.439,-7.397 -21.66,-8.395 -7.205,-0.995 -7.508,-0.924 -9.966,2.34 -27.68223,45.734063 10.59186,63.590893 5.56075,57.952993 -10.42906,-11.68689 -10.24816,-28.116078 -7.62216,-38.070078 1.61002,-6.03595 5.69179,-18.345915 9.55941,-18.294915 5.532,0.569 16.687,4.24 19.459,6.404 0.486,0.379 1.609,1.058 2.496,1.508 0.886,0.45 1.712,1.08 1.834,1.399 0.239,0.621 0.434,0.551 -8.441,3.009 -3.783,1.047 -4.556,1.384 -4.331,1.887 0.15,0.336 0.35,1.271 0.445,2.076 0.205,1.732 0.525,1.791 3.836,0.712 2.288,-0.746 7.991,-2.385 11.607,-3.337 l 1.876,-0.493 0.987,1.295 c 1.226,1.606 1.508,1.125 -4.933,8.423 -11.618,13.164003 -11.662,13.226003 -10.324,14.564003 1.311,1.311 2.523,0.689 5.463,-2.806 1.22,-1.449 3.304,-3.778 4.632,-5.174 1.329,-1.397003 3.534,-3.858003 4.902,-5.469003 1.367,-1.611 2.612,-2.981 2.765,-3.044 0.441,-0.181 4.044,7.642 5.568,12.089003 1.41784,19.27054 12.95964,1.39878 19.759,8.795 1.193,1.447 1.832,5.207 0.886,5.207 -0.183,0 -0.445,1.322 -0.582,2.938 -0.445,5.263 0.779,-1.024 1.501,-1.16 0.43,-0.081 1.748,-0.33 2.93,-0.554 1.181,-0.223 4.433,-0.693 7.226,-1.044 5.209,-0.654 29.187,-3.978 36.524,-5.064 2.256,-0.334 17.636,-2.539 34.179,-4.899 45.544,-6.499 55.274,-8.02 55.274,-8.639003 0,-0.176 -1.561,-1.104 -3.468,-2.062 l -3.467,-1.741 9.128,-9.298 c 13.51794,-12.820838 8.45612,-8.741994 15.275,-15.086 6.641,-6.194 10.637,-7.918 16.035,-6.92 11.33,2.094 15.147,16.096 7.22,26.481 -0.698,0.915 -1.27,1.81 -1.27,1.987 0,0.246 4.081,1.624 4.81,1.624 0.452,0 3.559,-8.176 4.127,-10.86 1.854,-8.764 -2.251,-18.416 -9.298,-21.859 l -1.728,-0.844 0.095,-4.40999 c 0.241,-11.209 -4.883,-18.783 -14.624,-21.621 -5.63,-1.639 -13.512,-0.283 -16.935,2.915 l -1.113,1.039 -0.214,-2.831 c -0.911,-12.045 -15.012,-19.268 -26.446,-13.547 -2.56,1.28 -3.142,1.808 -6.413,5.807 l -0.959,1.171 -0.642,-1.562 c -1.502,-3.658 -2.271,-4.86 -4.584,-7.168 -4.857,-4.846 -12.223,-6.7 -18.263,-4.598 m 11.397,5.05 c 7.504,3.329 10.726,12.404 7.759,21.853 -1.383,4.403 -1.663,3.956 -3.178,-5.073 -1.248,-7.438 -1.484,-8.079 -2.457,-6.69 -1.157,1.652 -0.467,7.51 2.154,18.306 l 0.806,3.321 -3.126,9.96099 c -4.081,12.998 -4.073,12.97 -3.595,14.316 0.218,0.612 2.356,2.976 4.751,5.255 l 4.355,4.142 -0.449,1.287 c -0.247,0.707999 -0.445,2.975 -0.439,5.038 0.008,3.395 0.189,4.754 0.976,7.324003 0.291,0.95 -0.142,1.086 -7.467,2.345 l -3.942,0.677 -1.917,-1.566 c -3.64797,-2.980037 -11.591,-9.330003 -12.644,-10.108003 -0.971,-0.719 -3.875,-3.098 -6.262,-5.133 -0.539,-0.459 -3.529,-2.976 -6.644,-5.594 -11.26601,-9.464156 -18.35041,-15.376633 -22.78988,-19.347295 -8.08174,-7.228314 -7.39826,-8.021524 -7.22012,-12.091695 0.336,-7.692 5.931,-13.231 13.415,-13.284 4.326,-0.03 7.198,1.572 11.935,6.657 0.983,1.055 3.969,3.939 6.637,6.41 2.668,2.471 6.083,5.656 7.589,7.078 6.183,5.83899 6.142,5.82599 5.435,1.809 -1.172,-6.663 -3.368,-21.815 -3.553,-24.512 -0.687,-10 10.094,-16.716 19.871,-12.38 m 33.167,4.225 c 2.799,0.825 7.137,5.341 7.991,8.319 0.912,3.178 0.531,6.561 -1.167,10.379 -0.718,1.614 -1.662,3.762 -2.099,4.774 -0.814,1.885 -0.879,1.924 -3.977,2.435 -0.752,0.124 -2.105,0.614 -3.007,1.088 -0.901,0.475 -1.732,0.77 -1.846,0.656 -0.296,-0.296 1.187,-5.398 2.802,-9.64 1.135,-2.98 1.316,-3.84 1.022,-4.864 l -0.357,-1.243 -0.904,0.958 c -1.456,1.542 -2.555,4.062 -4.758,10.913 -1.853,5.761 -2.219,6.565 -3.469,7.613 -6.302,5.28499 -10.186,12.94499 -10.186,20.08899 0,2.567 -0.028,2.636 -1.718,4.295 l -1.717,1.685 -3.596,-3.034 -3.596,-3.034 0.247,-1.542 c 0.582,-3.639 11.401,-40.63899 12.541,-42.88899 3.266,-6.445 10.259,-9.18 17.794,-6.958 m -114.946,4.379 c 7.021,-1.725 19.651,0.039 23.76,3.317 l 1.274,1.017 -2.918,2.689 c -3.789,3.491 -5.085,5.747 -5.821,10.132 -0.135,0.806 -0.418,1.465 -0.627,1.465 -0.586,0 -22.899,8.656 -26.732,10.37 -3.84,1.71699 -14.045,5.59799 -14.231,5.41199 -1.955,-1.95 0.856,-14.44699 4.368,-19.42599 2.30995,-3.04033 0.69682,-0.967438 2.137,-3.003 2.129,-3.041 4.145,-4.92 7.824,-7.29 3.89527,-3.169574 6.2634,-3.95231 10.966,-4.683 m 1.47,2.265 c -0.972,2.312 0.877,6.216 2.36,4.985 1.297,-1.076 0.414,-5.526 -1.022,-5.151 -0.432,0.113 -0.786,0.022 -0.786,-0.202 0,-0.224 0.308,-0.488 0.684,-0.586 0.635,-0.166 0.634,-0.182 -0.019,-0.224 -0.44,-0.028 -0.895,0.411 -1.217,1.178 m 11.274,0.131 c -2.00197,5.353874 2.80169,5.641742 2.95,1.002 0,-2.513 -2.03,-3.203 -2.95,-1.002 m 130.859,6.304 c 3.093,0.426 8.419,3.124 8.419,4.266 0,0.271 0.245,0.586 0.543,0.7 0.299,0.115 1.04,1.233 1.646,2.484 0.606,1.251 1.353,2.466 1.66,2.7 0.358,0.273 0.597,1.325 0.665,2.93 0.059,1.377 0.15,2.767 0.202,3.09 0.052,0.322 0.067,1.596 0.033,2.832 l -0.061,2.24599 -2.246,0.014 c -5.964,0.036 -11.014,2.598 -16.92,8.584 -1.906,1.931 -3.619,3.511 -3.808,3.511 -0.686,0 -1.828,1.668 -1.7,2.484 -4.88776,3.986087 -6.75983,5.893611 -10.904,10.119 -12.131,12.382 -11.688,11.905 -11.688,12.58 0,0.556 -0.192,0.644 -2.93,1.339 -1.374,0.349 -11.856,1.994003 -12.706,1.994003 -0.913,0 -2.016,-4.529003 -1.859,-7.633003 0.211,-4.162 1.251,-6.282 4.682,-9.534 l 2.657,-2.519 v -3.788 c 0,-10.458 5.731,-17.522 17.27,-21.28599 2.425,-0.791 4.783,-1.577 5.239,-1.746 0.605,-0.224 0.899,-0.768 1.084,-2.001 1.068,-7.121 10.892,-14.713 17.813,-13.766 0.537,0.074 1.846,0.254 2.909,0.4 m -156.614,0.916 c -0.504,1.588 1.739,4.316 3.549,4.316 1.517,0 1.795,-0.878 0.759,-2.402 -1.642,-2.417 -3.838,-3.393 -4.308,-1.914 m 15.359,6.532 c -0.866,0.23 -1.229,1.269 -0.675,1.935 1.217,1.468 5.786,-0.279 4.82,-1.842 -0.22,-0.356 -2.922,-0.416 -4.145,-0.093 m 35.783,2.198 c -1.449,1.246 -1.395,1.321 6.487,9.024 7.03,6.86899 7.263,7.00599 7.958,4.67999 0.206,-0.689 -0.837,-1.869 -6.208,-7.02799 -3.55,-3.411 -6.455,-6.412 -6.455,-6.669 0,-0.905 -0.735,-0.907 -1.782,-0.007 m -55.6,4.928 c -0.439,0.278 -0.348,0.542 0.471,1.361 1.902,1.902 6.068,1.138 4.971,-0.912 -0.465,-0.87 -4.28,-1.184 -5.442,-0.449 m 34.36,1.107 c 1.248,3.379 2.66,5.43299 5.415,7.87299 1.599,1.417 3.798,3.403 4.886,4.413 1.32706,1.454145 2.92072,1.872475 0.275,1.77 -3.23,-0.123 -4.857,3.201 -3.511,7.175 0.247,0.731 2.64,6.074 5.316,11.875 2.677,5.801 5.024,10.955 5.216,11.454 0.427,1.11 -1.911,5.287003 -4.581,8.182003 -0.937,1.016 -1.707,1.98 -1.709,2.141 -0.01,0.743 -1.051,0.18 -1.443,-0.781 -2.37999,-5.33745 -4.57417,-9.955088 -7.143,-15.527003 -0.694,-1.504 -2.19,-4.668 -3.326,-7.032 -1.135,-2.363 -3.14,-6.541 -4.455,-9.284 -2.573,-5.366 -3.395,-6.242 -6.333,-6.738 -2.756,-0.466 -5.425,1.647 -6.054,4.793 -0.279,1.396 0.808,4.042 7.261,17.675 7.069,14.934003 8.373,18.009003 7.932,18.715003 -0.778,1.245 -9.88,2.551 -9.88,1.419 0,-0.373 -0.329,-1.144 -0.731,-1.715 -0.402,-0.57 -1.589,-2.88 -2.637,-5.133 -8.485,-18.237003 -10.003,-20.437003 -13.626,-19.757003 -7.49329,2.864342 -2.51054,14.425563 0.26047,19.092373 2.421,5.834 2.82353,6.43263 -0.0635,4.08263 -2.191,-1.783 -6.951,-4.681 -8.445,-5.141 -1.571,-0.484 -3.069,-3.306 -7.173,-13.516003 -0.82,-2.041 -2.314,-5.339 -3.319,-7.328 -1.956,-3.873 -2.614,-9.226 -1.288,-10.478 0.675,-0.637 14.601,-6.399 28.232,-11.683 2.579,-0.999 6.446,-2.50099 8.594,-3.33899 12.299,-4.793 11.793,-4.661 12.33,-3.208 m 18.557,19.33999 c 0.874,0.696 3.453,2.813 5.73,4.705 l 4.142,3.439 -0.567,1.639 c -0.852,2.466 -2.629,5.545 -3.199,5.545 -0.278,0 -1.295,-1.757 -2.261,-3.906 -2.696,-5.993 -2.899,-6.428 -4.518,-9.668 -1.687,-3.379 -1.613,-3.574 0.673,-1.754 m 17.017,14.45 c 6.611,5.564 10.648,8.868 14.239,11.652 5.658,4.386003 5.668,4.028003 -0.137,4.773003 -8.318,1.066 -23.747,3.273 -31.049,4.439 -1.92,0.307 -1.874,0.027 0.586,-3.537 6.091,-8.825003 10.082,-14.762003 11.386,-16.937003 1.774,-2.958 1.912,-2.969 4.975,-0.39 m 63.445,10.148 c -0.366,0.205 -0.779,0.259 -0.918,0.12 -0.343,-0.344 0.769,-0.996 1.222,-0.716 0.199,0.123 0.062,0.391 -0.304,0.596 m -167.45,23.914003 c 7.64886,-7.21905 29.5894,-9.34769 29.734,-1.897 0,1.079 0.152,1.673 0.391,1.526 m -3.99718,-38.346002 c -2.835,1.571 -2.18038,4.107651 0.574,5.302 2.72196,1.180292 5.32663,-2.841477 2.26,-5.038 -1.191,-0.937 -1.559,-0.971 -2.834,-0.264"
               style="fill:#313131;fill-rule:evenodd;stroke:none"
               id="path63"
               sodipodi:nodetypes="ccccccccccccscscccsccccccccccccsscsccccscsccscsccccccssccccccccccccccccscccccccscsccscccscccscccccccsscsccccccsccccccccccccssccccccccscccccccscssccccccsccscscccsscccccsccccscccccsccsccccccccssccccccsccsccccccccccccccccsccccccccccccscccccscc" />
          </g>
          <path
             style="fill:none;stroke:#313131;stroke-width:5.5;stroke-linecap:butt;stroke-linejoin:miter;stroke-miterlimit:4;stroke-dasharray:none;stroke-opacity:1"
             d="m -488.37914,127.34887 15.48262,-8.17673 16.30879,-4.45605 19.11441,-2.69953 15.62729,-1.86741 94.5688,-11.92398 38.22165,-3.87563 10.44205,-0.4166 20.00496,0.80295 13.1103,1.17085"
             id="path26929" />
        </g>
      </g>
      <g
         id="g11275"
         transform="translate(832.51733,109.23098)">
        <path
           d="m -854.09873,427.20234 c -4.1485,13.60404 -9.25373,23.38302 -24.10943,31.47016 -71.79355,-29.76286 -200.70084,37.99866 -262.54544,22.461 21.9426,28.89056 28.2188,36.29372 43.7446,47.39181 45.5919,32.58989 55.6983,24.18795 82.1561,28.09079 27.95189,8.36901 44.67829,-3.22348 45.43739,-3.2438 58.08995,-16.6463 44.97888,-24.78673 51.94655,-26.80402 39.86862,-27.72084 38.44756,-48.21817 55.4159,-72.36374 m -111.38325,34.11354 c 1.2872,0.43818 2.6078,0.89564 2.9344,1.01634 0.423,0.1562 -0.426,1.17762 -2.9344,3.53288 l -3.5278,3.31376 -2.9974,-1.1908 c -1.6492,-0.65526 -3.1696,-1.29732 -3.3796,-1.42714 -0.567,-0.34994 5.7612,-6.01694 6.735,-6.03114 0.4564,-0.006 1.8826,0.34791 3.1698,0.7861 m -40.45919,7.10224 c 1.0946,0.42196 2.3452,0.88348 2.7814,1.02548 0.8712,0.28402 -1.267,2.48712 -4.8262,4.97422 -2.198,1.53568 -2.4172,1.51032 -6.8618,-0.79928 -1.0478,-0.5447 -0.6594,-1.0914 2.5286,-3.55418 3.4852,-2.69402 3.5918,-2.7214 6.378,-1.64624 m 21.57659,6.0991 c 3.8048,1.17154 3.8048,1.2395 0.027,4.57356 -3.6636,3.23364 -3.1534,3.05614 -5.8506,2.03168 -1.1462,-0.43616 -2.42819,-0.79218 -2.84919,-0.79218 -1.5012,0 -1.283,-0.8855 0.6178,-2.51552 1.05479,-0.90476 2.54679,-2.22034 3.31579,-2.92224 1.6654,-1.5235 1.1472,-1.48192 4.7388,-0.3753"
           style="fill:#313131;fill-rule:evenodd;stroke:none;stroke-width:1.01432"
           id="path10798"
           sodipodi:nodetypes="cccscccccsccscccccsscccscsscc" />
        <path
           d="m -1072.0369,488.58571 c -0.859,0.102 -2.199,0.268 -2.978,0.37 -1.072,0.14 -1.764,-0.052 -2.859,-0.795 -0.794,-0.539 -1.634,-0.862 -1.867,-0.717 -0.249,0.153 -0.313,0.081 -0.154,-0.175 0.165,-0.267 -0.495,-0.825 -1.698,-1.434 -1.082,-0.549 -1.97,-0.863 -1.973,-0.698 0,0.165 -0.137,0.094 -0.297,-0.158 -0.849,-1.334 -2.372,-1.021 -2.802,0.577 -0.231,0.857 -0.69,1.662 -1.021,1.789 -0.368,0.141 -0.502,0.069 -0.346,-0.184 0.175,-0.283 0.027,-0.298 -0.468,-0.048 -4.7683,5.10777 -6.682,8.17438 -10.281,14.573 -18.2387,21.00254 26.7679,23.82008 17.918,7.041 -0.955,-1.622 -0.795,-1.817 1.003,-1.224 6.202,2.047 11.936,-5.94 8.622,-12.01 m 152.32605,-21.299 c -2.25,0.548 -2.71462,2.42573 -2.286,5.138 l 0.619,1.917 -2.01,2.656 -2.01,2.655 1.896,1.978 c 1.043,1.087 2.221,2.499 2.617,3.138 0.397,0.639 0.876,1.342 1.066,1.563 0.757,0.878 4.6,6.486 4.6,6.713 0,0.133 0.528,1.099 1.172,2.146 1.417,2.303 1.445,2.608 0.233,2.536 -0.517,-0.031 -0.875,-0.161 -0.796,-0.289 0.079,-0.127 -1.125,-0.944 -2.674,-1.816 -1.55,-0.872 -3.609,-2.037 -4.575,-2.59 -3.876,-2.216 -4.733,-2.607 -5.152,-2.347 -0.252,0.155 -0.33,0.095 -0.183,-0.142 0.228,-0.369 -1.215,-1.256 -5.998,-3.688 -0.754,-0.384 -2.179,-0.808 -3.165,-0.943 l -1.793,-0.246 -1.814,2.357 c -0.998,1.296 -2.539,2.978 -3.426,3.736 l -1.611,1.38 2.879,3.453 c 1.584,1.899 3.667,4.545 4.628,5.879 0.962,1.334 1.895,2.426 2.074,2.426 0.179,0 0.243,0.133 0.143,0.296 -0.377,0.609 6.179,8.455 8.01,9.586 4.21,2.598 8.08,1.7 8.674,-2.013 0.314,-1.968 0.07,-2.52 -0.971,-2.19 -0.878,0.279 -5.449,-4.103 -9.686,-9.286 -1.358,-1.662 -2.622,-2.927 -2.809,-2.812 -0.186,0.115 -0.222,-0.094 -0.08,-0.465 0.201,-0.522 0.107,-0.616 -0.415,-0.415 -0.43,0.165 -0.58,0.107 -0.415,-0.161 0.142,-0.23 -0.332,-0.914 -1.054,-1.519 -1.848,-1.55 -1.103,-1.932 0.81,-0.416 0.866,0.685 2.324,1.649 3.241,2.143 0.917,0.493 3.549,2.054 5.848,3.468 12.127,7.456 17.13,7.299 17.1,-0.539 -0.01,-1.884 -1.443,-7.831 -2.178,-9.02 -0.156,-0.253 -0.108,-0.344 0.111,-0.21 0.214,0.133 1.557,-0.983 2.985,-2.478 2.987,-3.129 2.692,-3.038 5.406,-1.667 5.216,2.634 11.006,0.039 9.748,-4.369 -0.061,-0.213 -0.133,-0.677 -0.159,-1.031 -0.043,-0.574 -0.143,-0.582 -0.912,-0.078 -1.131,0.741 -3.974,-0.654 -10.168,-4.99 -6.303,-4.413 -10.512,-7.077 -13.413,-8.491 -2.573,-1.253 -2.727,-1.289 -4.107,-0.953 m 6.641,11.294 c 2.363,1.739 4.78,3.47 5.371,3.846 1.4,0.892 1.402,0.889 -1.152,2.933 -1.797,1.439 -2.251,1.648 -2.541,1.172 -0.194,-0.319 -0.872,-1.459 -1.506,-2.534 -1.523,-2.579 -1.83,-3.06 -3.798,-5.964 -1.27,-1.872 -2.132,-4.66 -0.915,-2.957 0.134,0.188 2.177,1.764 4.541,3.504 m -167.11005,5.971 c -0.042,0.125 0.429,0.888 1.046,1.695 3.603,4.715 -0.64,10.726 -5.832,8.262 -2.328,-1.104 -2.342,-1.408 -0.188,-3.923 1.079,-1.26 2.432,-3.184 3.007,-4.276 0.811,-1.542 2.344,-2.912 1.967,-1.758 m -7.288,12.958 c 3.329,7.106 -3.225,13.648 -9.432,9.416 l -1.799,-1.226 4.631,-4.752 c 2.547,-2.613 4.631,-4.903 4.631,-5.089 0,-1.041 1.167,-0.062 1.969,1.651 m 133.57705,1.196 c -5.416,2.129 -9.265,8.052 -8.846,13.613 0.354,4.683 3.782,12.911 5.251,12.602 0.243,-0.051 0.351,0.146 0.238,0.438 -0.32,0.834 3.608,4 6.137,4.945 4.211,1.575 13.805,-0.067 13.338,-2.282 -0.051,-0.242 0.146,-0.349 0.438,-0.237 2.189,0.84 5.76,-7.877 4.775,-11.658 -3.124,-11.993 -13.526,-20.489 -21.331,-17.421 m -105.10205,0.398 c -0.017,0.646 -0.782,1.5 -2.636,2.941 -1.437,1.117 -2.965,2.312 -3.394,2.655 -5.535,4.417 -9.952,6.874 -10.919,6.072 -3.5986,-0.89563 -2.46,2.795 -2.46,2.795 1.494,0.543 1.389,0.761 -1.269,2.626 -3.28,2.3 -3.422,2.7 -1.647,4.648 2.022,2.222 2.992,2.346 5.162,0.66 0.967,-0.751 2.423,-1.813 3.237,-2.358 0.861,-0.578 1.366,-1.176 1.209,-1.43 -0.168,-0.271 -0.093,-0.327 0.198,-0.148 0.257,0.159 0.712,0.088 1.009,-0.16 0.514,-0.426 6.916,2.281 7.455,3.152 0.101,0.164 -0.153,1.234 -0.564,2.377 -0.986,2.741 -1.36,4.27 -1.252,5.117 0.58,4.555 6.575,7.452 7.298,3.526 0.15,-0.817 1.059,-3.682 2.018,-6.368 5.718,-15.998 6.402,-19.203 4.656,-21.841 -1.246,-1.883 -3.575,-3.722 -4.214,-3.327 -0.288,0.178 -0.366,0.123 -0.201,-0.142 0.311,-0.503 -0.598,-1.047 -2.392,-1.432 -1.143,-0.246 -1.272,-0.182 -1.294,0.637 m 108.04205,5.577 c 2.959,1.236 8.739,8.649 10.377,13.308 3.392,9.652 -5.88,8.661 -11.892,-1.271 -5.097,-8.418 -4.333,-14.481 1.515,-12.037 m -94.74905,1.005 c -1.699,0.672 -1.599,3.71 0.123,3.706 0.915,-0.002 1.222,0.156 1.128,0.583 -0.179,0.809 -2.42,6.872 -5.127,13.867 -1.247,3.223 -2.565,6.78 -2.93,7.905 l -0.662,2.045 1.103,1.633 c 0.769,1.138 1.607,1.815 2.761,2.234 l 1.657,0.6 1.37,-1.328 c 0.754,-0.73 1.371,-1.555 1.371,-1.833 0,-0.44 0.851,-2.611 3.322,-8.479 0.931,-2.21 1.471,-1.304 2.302,3.864 0.869,5.404 2.094,7.976 4.886,10.262 1.121,0.917 2.203,1.566 2.405,1.441 0.201,-0.124 0.366,-0.04 0.366,0.188 0,0.88 4.099,0.479 5.01,-0.491 1.159,-1.233 1.103,-1.464 -0.899,-3.69 -0.961,-1.069 -1.93,-2.363 -2.153,-2.874 -0.223,-0.512 -0.757,-1.513 -1.188,-2.225 -0.431,-0.713 -1.202,-2.496 -1.715,-3.963 l -0.932,-2.667 1.134,-0.227 c 6.5988,-1.32093 10.178,-8.137 7.12,-13.562 -1.371,-2.433 -5.181,-5.286 -7.517,-5.629 -0.769,-0.113 -2.215,-0.468 -3.213,-0.788 -2.277,-0.731 -8.407,-1.092 -9.722,-0.572 m -11.316,0.288 c 0,0.78 -4.157,10.642 -4.486,10.642 -0.119,0 -0.923,-0.446 -1.786,-0.991 -0.863,-0.545 -1.766,-0.869 -2.006,-0.721 -0.252,0.156 -0.327,0.094 -0.178,-0.148 0.142,-0.23 0.037,-0.498 -0.233,-0.596 -0.283,-0.102 1.329,-1.928 3.807,-4.311 4.074,-3.92 4.882,-4.562 4.882,-3.875 m 76.07505,2.172 c -1.542,0.33 -2.724,1.438 -1.535,1.438 0.784,0 2.566,5.784 3.958,12.84 3.16,16.029 3.89,17.595 8.479,18.202 3.916,0.517 8.89143,-5.49079 12.69,-5.112 l 1.424,-1.858 -1.225,-1.587 c -0.674,-0.872 -1.266,-1.655 -1.316,-1.739 -0.05,-0.084 -0.819,0.505 -1.707,1.308 -2.677,2.418 -6.999,3.567 -6.999,1.861 0,-0.382 -0.238,-1.041 -0.53,-1.465 -0.291,-0.423 -0.926,-2.528 -1.411,-4.676 -3.007,-13.331 -3.679,-15.467 -5.525,-17.569 -1.009,-1.149 -1.679,-1.482 -3.862,-1.922 -0.322,-0.065 -1.421,0.06 -2.441,0.279 m -11.231,1.831 c -1.396,0.158 -3.742,0.393 -5.212,0.522 -5.40605,0.476 -6.19905,0.845 -4.37805,2.038 1.87905,1.231 2.57705,3.089 3.01805,8.041 0.47,5.28 0.382,5.781 -0.968,5.523 -1.81605,-0.347 -1.41105,2.241 0.6,3.834 0.706,0.56 0.815,1.246 1.041,6.544 0.325,7.598 0.596,7.991 5.647,8.201 6.718,0.28 12.065,-1.525 13.608,-4.594 1.107,-2.2 -0.55,-3.888 -2.539,-2.585 -0.913,0.598 -5.887,1.771 -7.512,1.771 -1.498,0 -2.133,-1.722 -2.133,-5.786 v -3.481 l 2.914,-0.265 c 4.936,-0.447 5.289,-0.673 5.289,-3.39 0,-2.705 -0.602,-3.081 -3.802,-2.371 -1.024,0.227 -2.598,0.522 -3.499,0.657 l -1.636,0.243 -0.121,-4.765 c -0.144,-5.647 -0.534,-5.254 5.625,-5.667 l 4.094,-0.274 -0.038,-1.863 c -0.02,-1.025 -0.149,-1.796 -0.286,-1.713 -0.136,0.083 -0.445,-0.086 -0.685,-0.376 -0.496,-0.598 -4.864,-0.716 -9.027,-0.244 m -17.77305,0.256 c -8.002,1.715 -13.452,9.361 -13.471,18.898 -0.01,3.142 0.894,7.382 1.672,7.876 0.259,0.165 0.33,0.302 0.159,0.306 -1.159,0.022 3.763,5.053 5.194,5.31 0.108,0.019 0.691,0.24 1.295,0.49 4.465,1.85 13.837,-2.196 13.479,-5.818 -0.208,-2.099 -1.099,-2.291 -3.92,-0.844 -7.209,3.696 -11.159,-2.054 -8.85,-12.883 1.778,-8.333 7.118,-11.342 7.667,-4.32 0.227,2.9 0.457,3.212 2.367,3.221 4.69005,0.022 5.05505,-7.758 0.504,-10.749 -1.164,-0.765 -4.378,-1.826 -5.12,-1.69 -0.107,0.019 -0.547,0.111 -0.976,0.203 m -23.182,2.102 c 3.429,3.604 0.454,9.962 -4.748,10.149 -2.678,0.096 -2.88,0.056 -2.455,-0.497 0.207,-0.269 0.963,-2.159 1.68,-4.2 2.783,-7.913 2.988,-8.116 5.523,-5.452 m 55.21305,30.062 c -0.133,0.215 -0.133,0.566 0,0.781 0.36,0.583 1.237,0.471 1.237,-0.158 0,-0.327 -0.237,-0.458 -0.585,-0.324 -0.38,0.146 -0.486,0.064 -0.302,-0.233 0.155,-0.251 0.194,-0.457 0.087,-0.457 -0.108,0 -0.304,0.176 -0.437,0.391 m 0.977,3.906 c 0,0.215 0.263,0.391 0.585,0.391 0.323,0 0.586,-0.176 0.586,-0.391 0,-0.215 -0.263,-0.391 -0.586,-0.391 -0.322,0 -0.585,0.176 -0.585,0.391"
           style="fill:#f2e7be;fill-rule:evenodd;stroke:none"
           id="path11009"
           sodipodi:nodetypes="ccsccccccscccccccsccccccscccccccccccccccsccccccccccccccccccsccccccccccccccccsccccccscccsccsccccsccccccccccccccccsccccccccsccccccccscsccsccccccscscccssccccccsccsccscsccsscccsssccccsssccsscccccccccccccccccccssccccsccccsccsccsssc" />
      </g>
      <path
         style="fill:#efb555;fill-opacity:1;stroke:none;stroke-width:0.15528"
         d="m -229.58075,554.82397 c -1.36595,-0.50449 -3.7267,-1.80969 -3.7267,-2.06039 0,-0.37562 1.34552,-1.62238 3.4954,-3.23884 2.07148,-1.55751 2.96589,-2.00213 3.70821,-1.84337 0.2655,0.0568 1.44351,0.45389 2.61781,0.88248 1.66284,0.60688 2.1351,0.841 2.1351,1.05847 0,0.60954 -4.25197,4.26701 -6.00937,5.16916 -0.58498,0.30029 -1.46067,0.31311 -2.22045,0.0325 z"
         id="path19943"
         transform="translate(43.547531,56.341)" />
      <path
         style="fill:#efb555;fill-opacity:1;stroke:none;stroke-width:0.15528"
         d="m -208.15217,560.84139 c -1.35482,-0.52987 -2.93495,-0.98114 -3.43547,-0.98114 -0.67008,0 -0.81365,-0.33598 -0.40359,-0.94446 0.46841,-0.69507 5.52745,-5.23251 5.97343,-5.35755 0.63427,-0.17783 5.55985,1.46445 5.8629,1.9548 0.20138,0.32584 -0.61718,1.28069 -2.61164,3.04645 -3.40549,3.01499 -3.45622,3.03649 -5.38563,2.2819 z"
         id="path19982"
         transform="translate(43.547531,56.341)" />
      <path
         style="fill:#efb555;fill-opacity:1;stroke:none;stroke-width:0.15528"
         d="m -190.8262,547.62651 c -1.61591,-0.65887 -2.96922,-1.29244 -3.00737,-1.40793 -0.0924,-0.27976 2.95283,-3.23742 4.71025,-4.5748 l 1.3904,-1.05809 0.87542,0.0713 c 0.73877,0.0602 4.72931,1.27947 5.38854,1.64647 0.31782,0.17694 -0.95712,1.60208 -3.75983,4.20276 -1.33454,1.23835 -2.47886,2.26655 -2.54293,2.28489 -0.0641,0.0183 -1.43858,-0.50572 -3.05448,-1.16458 z"
         id="path20021"
         transform="translate(43.547531,56.341)" />
      <rect
         style="fill:#d15b3f;fill-opacity:1;stroke:#f2e7be;stroke-width:8.35773;stroke-linecap:butt;stroke-linejoin:bevel;stroke-dasharray:none;stroke-opacity:1;paint-order:stroke fill markers"
         id="rect2901"
         width="301.78394"
         height="120.00202"
         x="-401.13885"
         y="455.4184"
         ry="60.001011"
         transform="matrix(0.99583711,-0.09115072,0.1448999,0.98944632,0,0)" />
      <g
         id="g12449"
         transform="matrix(1.2562097,0,0,1.3952697,-40.740388,-289.99399)">
        <g
           id="g29335"
           transform="translate(-2.543641,5.693233)">
          <path
             d="m -68.628432,586.78679 c -2.220181,3.70877 -9.418692,10.68386 -8.608185,8.20547 0.128152,-0.39007 0.736313,-2.98777 1.351219,-5.77428 0.61603,-2.78651 1.510847,-6.34174 1.989732,-7.90202 0.478884,-1.56028 1.366957,-4.56879 1.97287,-6.68616 1.868324,-6.52537 2.507961,-8.56805 4.000822,-12.76544 1.499606,-4.21815 2.521653,-7.23218 0.692674,-7.23218 -3.468445,-1.00937 -7.595278,-3.17564 -8.006253,-0.45794 0,1.22208 -2.680046,1.99054 -4.007658,0.45516 -1.918911,-2.22008 -5.502676,-3.34464 -8.612054,-2.70248 -7.866105,1.74811 -13.437925,8.9135 -16.700265,14.80397 -2.79012,5.15805 -6.99216,17.7492 -7.25409,21.73911 -0.0382,0.59133 -0.18323,1.01149 -0.32038,0.93264 -0.13827,-0.0778 -0.70596,1.17021 -1.26241,2.77406 -0.55645,1.60489 -1.38944,3.60711 -1.85146,4.45053 -0.46315,0.84342 -0.70371,1.73767 -0.53734,1.98769 0.17199,0.25728 0.10792,0.34235 -0.14839,0.19607 -0.24843,-0.14212 -1.00386,0.47618 -1.67722,1.37355 -0.76329,1.01563 -1.45914,1.54783 -1.84696,1.41089 -0.34174,-0.12138 -0.70484,-0.21994 -0.80489,-0.21994 -0.52722,0 0.0618,-2.61533 2.48098,-11.01427 1.46588,-5.08854 2.7238,-9.66148 2.79574,-10.16152 0.0731,-0.50107 0.24731,-1.1837 0.38896,-1.51774 0.43954,-1.03742 1.18597,-5.39458 0.95889,-5.60414 -0.11803,-0.10893 0,-0.43572 0.26193,-0.72619 0.2608,-0.29152 0.58005,-1.94931 0.70933,-3.68492 0.77791,-10.4966 -8.41308,-14.1867 -16.45182,-6.60628 -3.09252,2.91618 -3.01046,2.90477 -4.10537,0.61934 -1.08255,-2.2595 -1.61764,-2.52404 -5.80057,-2.87365 -2.67771,-0.22408 -3.39716,-0.16703 -3.5433,0.28114 -0.10117,0.30811 -0.51261,2.38503 -0.91505,4.6134 -0.40132,2.22941 -0.92292,4.7825 -1.15787,5.67365 -0.23382,0.89114 -0.49912,1.98561 -0.58793,2.4317 -0.0877,0.44506 -1.66035,6.1187 -3.49383,12.60776 -5.60385,19.83026 -5.44759,22.11673 1.7087,25.11176 4.10312,1.71796 4.31558,1.63497 4.46621,-1.72834 0.3024,-6.78576 5.9973,-26.85878 9.33151,-32.88929 0.51261,-0.92642 0.77903,-1.68685 0.59242,-1.68996 -0.18548,-0.003 -0.13377,-0.14005 0.11579,-0.30396 0.24956,-0.16391 1.12302,-1.30092 1.94027,-2.52612 0.81837,-1.22623 2.24828,-2.97013 3.17907,-3.87476 0.93079,-0.90566 1.58841,-1.77191 1.46251,-1.92545 -0.1259,-0.15353 -0.0989,-0.18984 0.0596,-0.0799 0.15963,0.10997 0.5632,-0.0104 0.89707,-0.26661 2.31236,-1.77088 2.10664,3.44838 -0.53734,13.64309 -0.80826,3.12056 -1.56256,6.12907 -1.67385,6.68617 -0.11129,0.55709 -0.50811,2.10803 -0.88021,3.44527 -3.3623,12.05377 -2.44838,17.79484 3.26114,20.48176 5.12159,2.412 10.23419,-2.11738 13.54816,-11.99983 0.86559,-2.58317 1.40855,-2.96494 1.56706,-1.10381 0.22033,2.58317 3.88391,7.06793 7.01577,8.58879 4.797844,2.33004 10.826619,-0.3382 13.467229,-5.96205 l 0.893693,-1.90055 0.726196,1.66921 c 4.568514,10.49142 17.479502,-1.74296 20.453769,-8.55767 2.844181,5.66953 1.493153,4.73404 8.777303,9.05667 m -113.906,-68.90742 c -3.55389,0.99302 -19.93203,3.00016 -21.08329,5.82199 0,0.18363 -0.27317,0.33405 -0.60704,0.33405 -0.33387,0 -1.38944,0.68366 -2.34608,1.51982 -0.95552,0.83512 -2.55967,2.23564 -3.56466,3.11018 -4.75951,5.06441 -9.53845,11.51463 -9.09543,18.5283 0.50924,4.76591 3.36681,12.09735 4.71578,12.09735 0.27766,0 0.37771,0.11722 0.2237,0.25935 -0.43617,0.40252 2.34721,3.4266 2.87556,3.12471 0.26192,-0.14939 0.34174,-0.0778 0.17986,0.16287 -0.29565,0.44298 4.55727,4.67046 7.5014,6.5347 0.90943,0.57577 4.75063,2.90478 8.53561,5.17569 15.84704,9.50483 19.70286,13.52483 19.67363,20.50977 -0.0146,3.4961 -1.42991,8.66141 -2.635,9.61998 -0.14052,0.11204 -0.70034,0.8787 -1.24443,1.70552 -2.3191,3.52308 -14.72401,11.77885 -15.97069,10.62939 -0.0877,-0.0809 -1.23768,0.11723 -2.55517,0.44091 -10.40169,2.55412 -21.36249,-5.40924 -22.59526,-12.16789 0.57577,-3.42048 -1.2552,0.91207 0.65762,-5.92262 1.42541,-5.09892 7.45306,-9.10232 13.60774,-9.03592 4.67306,0.0498 6.18953,0.6598 15.22426,6.12077 0.86672,0.52493 1.06007,0.46165 2.34496,-0.76562 7.61209,-8.96681 -6.28864,-15.4408 -18.15265,-13.08392 -3.66583,0.82267 -6.94158,2.20036 -6.56499,2.76161 0.15064,0.22512 0.0394,0.26765 -0.25967,0.0965 -0.97913,-0.5571 -8.3906,5.59272 -8.39173,6.96315 -0.001,0.27803 -0.17424,0.50626 -0.3867,0.50626 -0.498,0 -1.61764,2.46595 -1.44452,3.18177 0.0731,0.30085 -0.0776,0.42741 -0.33612,0.27906 -0.42718,-0.24379 -0.50924,-0.0519 -0.64414,1.50322 -0.0236,0.27907 -0.24169,0.63698 -0.48225,0.79674 -0.25406,0.16702 -0.41256,2.13812 -0.37547,4.66009 0.28778,19.68709 27.04237,26.67307 45.53001,11.88882 1.40855,-1.12664 2.8958,-2.27506 3.30499,-2.55413 1.25792,-0.85483 2.70132,-2.80725 2.40342,-3.25127 -0.15401,-0.23031 -0.0764,-0.30396 0.17199,-0.1608 1.17586,0.67017 5.97594,-8.24956 7.37887,-13.70949 1.50973,-5.87283 0.0281,-15.86421 -2.48323,-16.75017 -0.21021,-0.0737 -0.38221,-0.37969 -0.38221,-0.67951 0,-0.29981 -0.24731,-0.78636 -0.5497,-1.08099 -0.30127,-0.29462 -1.12639,-1.32063 -1.83348,-2.28128 -1.5086,-2.0489 -3.5298,-3.49299 -4.31108,-3.07802 -0.30352,0.16183 -0.41256,0.15146 -0.24282,-0.0228 0.59917,-0.61415 -2.71144,-2.82592 -13.26264,-8.85852 -17.98066,-10.28082 -19.43878,-12.63452 -19.43878,-18.76671 0,-2.99088 0.58129,-4.86154 2.65421,-7.84308 0.85547,-1.22934 1.55581,-2.45557 1.55806,-2.72426 0.002,-0.26869 0.15289,-0.40356 0.33387,-0.29982 0.18211,0.10375 0.89032,-0.43053 1.5738,-1.1868 9.6665,-10.69268 35.45996,-12.19486 37.87911,-2.20659 1.32731,3.602 -1.74129,3.94945 -1.74129,3.94945 -1.12654,-1.28137 -11.34239,-2.43343 -13.61225,-0.32782 -2.40679,2.16094 -2.8868,3.05312 -3.79061,7.03681 l -0.36647,1.61318 c 1.92206,0.50512 -2.00539,-1.92693 0.83411,3.76583 3.33646,6.69032 11.06045,8.83466 15.86166,4.40281 0.35523,-0.32679 1.09267,-0.92745 1.64125,-1.33412 11.63016,-12.5344 6.4497,-26.81232 -4.72477,-30.24906 -2.82624,-0.23733 -9.05605,-1.46589 -10.75806,-0.68262 m 14.24852,22.08556 c -0.92405,2.23252 -5.56001,6.8065 -6.69764,6.60732 -3.33758,-0.58407 0.99487,-8.15722 5.04965,-8.82636 2.27638,-0.37555 2.56192,0.009 1.64799,2.21904 m 75.377112,6.28157 c 1.85479,5.6093 -1.994942,16.74835 -3.887284,22.49124 -3.878291,11.54129 -6.454825,16.24287 -9.727204,17.7492 -3.304978,1.5219 -4.718024,-1.63912 -4.298724,-9.60857 0.918429,-17.42553 12.609508,-37.41763 17.913212,-30.63187"
             style="fill:#f2e7be;fill-rule:evenodd;stroke:none;stroke-width:1.07991"
             id="path7214"
             sodipodi:nodetypes="cccscccccccccccccccscccsccsscccccccccssccscccsccccccccccccssccssccscsccsccccccccccscccccccccccscccccscsccccccccccccccscccccc" />
          <path
             d="m -150.55513,541.08657 c -0.50147,5.76276 -1.56401,13.74311 -5.72232,17.37618 -7.03418,6.14489 -13.47635,4.83879 -18.12148,-3.46098 -0.68742,-1.22854 -0.67727,1.87374 0.0124,4.10964 1.2689,4.11266 8.03147,6.61263 12.16949,6.06186 7.59195,-1.71942 8.16385,-6.05292 11.69885,-9.54904 1.20082,-3.31679 1.21171,-6.14671 1.26273,-9.62921 m -25.72158,-10.99537 c -13.17021,2.31583 -24.03182,11.23718 -24.56823,21.22099 0.71486,3.94223 1.36527,6.44366 1.69624,4.95647 0.45093,-2.02622 -0.60567,-7.31426 5.43961,-15.74493 4.75556,-3.89695 11.32039,-7.62016 15.28599,-7.62016 2.43643,-0.4366 7.45192,-0.54607 10.58154,-0.48721 1.41199,0.0266 6.33658,0.9928 7.41022,1.06274 -2.14776,-4.05161 -11.34629,-4.11083 -15.84539,-3.3879 m 16.36051,15.07536 c 0,0 -2.75173,0.51662 0,0 m 63.294677,19.12207 c -1.560307,4.29711 -3.971728,11.92628 -4.663103,19.31203 -0.224694,3.20649 -0.269604,5.10627 0.89798,1.22851 0.549653,-5.51713 5.204653,-23.228 10.97106,-27.00122 3.701905,-2.50636 4.940352,-4.13432 5.921848,-3.91168 -1.474717,-1.44189 -2.232472,-2.7681 -6.636401,0.7213 m 20.959636,-0.83865 c -3.298476,10.05936 -8.769633,31.62015 -8.341406,32.8684 0.487952,1.42016 2.389052,-2.8217 3.467507,-7.73258 0.646847,-2.94434 2.2696,-9.39582 3.606123,-14.33517 3.272552,-12.09598 4.153797,-19.60191 1.267776,-10.80065 m -141.665187,2.45927 0.089,5.7748 1.89321,3.48963 c 1.72979,3.1907 6.53945,8.66439 9.53928,10.85649 3.43032,2.50745 7.07926,4.86927 9.90443,6.41097 1.81546,0.99093 4.09407,2.36072 5.06209,3.04398 0.96914,0.68325 3.3458,2.32897 5.28296,3.65825 6.06842,4.1663 11.19362,10.48968 11.23869,13.86762 0.0113,0.94166 0.0485,0.95699 0.49246,0.21351 0.28511,-0.4763 0.40118,-2.13078 0.28624,-4.07433 -0.42034,-7.04495 -3.94307,-10.78094 -19.69053,-20.88082 -17.5539,-11.25834 -20.71446,-15.70544 -23.60948,-27.70835 -0.11382,-0.46973 -0.53684,2.17288 -0.48838,5.34825 m 80.92758,7.0307 c -5.41031,6.25111 -6.7306,7.82567 -10.40884,22.61415 -2.11071,8.4892 -3.41905,15.12025 -3.29171,16.68166 0.14537,1.77383 -0.0146,2.00596 -1.38723,2.00596 -2.98519,0 -7.41283,-2.89178 -8.84062,-5.77371 l -0.84744,-1.71141 0.28961,2.55891 c 0.60741,5.37076 2.47696,8.3151 6.36367,10.02433 3.94532,1.7355 5.03279,0.97122 5.43285,-3.81482 0.2513,-3.01005 2.63472,-13.61579 4.90206,-21.81373 0.55332,-1.99939 1.37596,-4.98315 1.82785,-6.62996 0.45302,-1.64682 0.93196,-3.08997 1.06606,-3.20713 1.44819,-3.98166 6.00653,-9.10087 8.57509,-14.00856 m 59.887059,24.95265 -1.388355,-2.9739 -1.837993,3.72175 c -2.06,4.17288 -5.214226,8.68521 -7.213368,10.31888 -3.345801,2.73629 -9.61143,0.5201 -11.822431,-4.18165 l -0.7663,-1.63148 -1.363563,2.3465 c -4.75106,8.18042 -14.678029,7.68001 -19.033539,-0.957 -1.68811,-3.34728 -1.94392,-3.54875 -2.37553,-1.87566 -1.09423,4.2353 -5.63907,11.55837 -7.91205,12.74749 -3.13957,1.64353 -7.97628,-0.22337 -10.21996,-3.94294 -1.47062,-2.43737 -1.61374,-2.34321 -1.25087,0.8256 1.18551,10.3342 11.19136,13.27197 15.65618,4.59772 0.5443,-1.05773 1.53373,-2.50197 2.19748,-3.20713 0.71108,-0.75771 1.33088,-2.02785 1.50894,-3.09872 0.41357,-2.4757 0.86096,-2.56986 1.72755,-0.36573 3.0483,7.75668 11.993723,9.1867 18.657152,2.98158 1.910115,-1.77821 2.920955,-2.25999 3.245506,-1.54827 0.414703,0.90661 4.270995,3.59474 5.692031,3.96703 4.826563,1.26248 10.627904,-3.12391 13.758471,-10.40538 0.82828,-1.92494 1.789536,-2.02129 2.720365,-0.27374 m -48.457195,-24.51168 c -0.40794,1.8658 -3.00209,11.74012 -4.8198,18.35365 -1.73431,6.30586 -1.82109,8.56476 -0.25919,6.70553 0.4271,-0.50807 1.31736,-2.81843 1.97886,-5.13317 0,0 1.70134,-5.3395 3.09112,-11.95802 1.67234,-7.94391 2.26714,-13.77164 1.4366,-13.77164 -0.41019,0 -1.27658,5.11601 -1.42759,5.80365 m -41.73855,28.76341 c -2.81277,17.33426 -14.85383,29.80361 -32.04937,33.18921 -13.23784,2.606 -26.87457,-5.33461 -28.42295,-16.55025 -0.19946,-1.44534 -0.33018,-1.66871 -0.59388,-1.01283 -1.02211,2.5392 0.0304,8.08296 2.33045,12.27555 10.98624,20.02674 47.59059,11.81457 56.81324,-12.74639 2.30791,-6.14599 2.57837,-7.56943 2.43413,-12.80222 -0.12171,-4.40173 -0.15552,-4.55393 -0.51162,-2.35307 m -44.2989,-0.72157 c -6.71527,1.87456 -11.357,8.49357 -10.33038,14.73263 l 0.33356,2.02896 0.84744,-2.72425 c 2.93446,-9.43086 15.07581,-11.11271 25.01291,-3.46555 4.42426,3.40532 3.22308,-4.33666 8.59271,-7.55082 l -0.30202,-1.16832 -0.74151,1.07853 c -3.03477,4.40939 -3.03251,4.4083 -7.99318,1.24279 -6.39522,-4.07981 -11.14966,-5.36638 -15.41953,-4.17397 m -0.29413,34.69368 c 0,0 -2.48817,-2.11474 0,0"
             style="fill:#313131;fill-rule:evenodd;stroke:none;stroke-width:1.11082"
             id="path11826"
             sodipodi:nodetypes="cccccccccsccscccccccccccccccccccccccccscccccsccccccccccccccccsccccscccccccccccccscccsccscccccccscccccc" />
        </g>
        <path
           id="path4-6"
           d="m -27.304014,543.85238 -1.091844,3.16868 c -4.446485,13.4702 -6.453316,30.45299 -11.720012,41.89094 -0.0433,0.25947 -0.912173,2.08362 -1.931224,4.05455 -8.541235,16.52835 -22.215505,15.18819 -19.959035,-1.95608 1.866723,-14.18526 10.530507,-29.41015 14.343197,-25.20707 1.029066,1.98268 -0.846984,6.59183 -1.624403,8.47691 -1.286259,3.08743 -1.427225,4.03621 -0.849516,5.71795 2.680306,7.80159 10.899057,2.45143 11.0087,-7.16644 0.08753,-7.64783 -6.996995,-14.4325 -12.634949,-12.10164 -0.352888,0.1459 -0.837535,0.23501 -1.077099,0.19919 -8.362909,1.77046 -15.144742,16.31878 -16.682586,23.50523 -1.999235,8.10468 -1.625608,11.93009 -1.59676,16.24268 -0.292736,-2.08842 0.887293,-2.41474 2.528276,0.7356 1.548848,2.97474 5.180022,6.7838 6.135499,6.43609 0.303139,-0.11008 0.460695,-0.0603 0.348289,0.11095 -0.299449,0.45953 3.559309,1.72893 5.256495,1.72893 5.328369,0 11.805703,-3.75227 14.360704,-8.31878 1.533038,0.12799 1.162382,-0.43786 1.874094,1.18902 0.283787,0.26908 0.694724,0.8055 0.9131,1.19164 0.510444,0.90597 4.281675,2.79826 5.555026,2.78865 0.963767,-0.008 0.976665,-0.0367 0.804366,-1.80493 -0.172299,-1.75863 0.308666,-4.24937 2.893146,-15.00997 0.496627,-2.06441 1.003389,-4.17599 1.126858,-4.69231 1.35498,1.84523 1.151811,0.0862 2.758364,5.3361 1.786568,5.38161 5.019963,10.9188 6.172618,12.01173 0.300367,0.28393 0.670763,0.70939 0.823719,0.94527 0.578627,0.89286 3.018459,2.34921 4.443839,2.65324 1.617031,0.34421 5.6729667,-1.01254 5.1993737,-1.73854 -0.1243857,-0.19046 -0.01382,-0.26821 0.245082,-0.17386 2.067591,0.75221 7.013584,-7.07209 8.89965898,-14.07779 1.634538,-6.07004 1.127776,-8.75298 -1.73312798,-9.18106 -1.580172,-0.23588 -2.756779,2.53879 -1.300994,3.06821 0.6983942,4.796 -3.176305,15.22611 -7.4862497,15.57522 -0.790549,0 -1.867649,-1.54896 -4.42725,-6.36882 -7.828919,-10.74194 4.488797,-17.12307 6.7546757,-24.65403 0.6208994,-4.15133 -1.8515837,-8.4738 -5.9567537,-8.56428 -2.636074,0 -6.880899,3.51465 -9.399967,7.78237 -0.791468,1.34191 -1.536868,2.44356 -1.656646,2.44793 -0.234956,0.009 1.479747,-5.37637 5.429722,-17.05515 8.855455,-11.11237 -3.906522,-17.42798 -6.746377,-9.18631 m 13.878811,21.19884 c 1.008017,7.80267 -7.493519,12.72958 -10.080855,14.26121 -8.104436,3.57848 6.752729,-16.42531 10.080865,-14.26126"
           stroke="none"
           fill="#f2e7be"
           fill-rule="evenodd"
           sodipodi:nodetypes="cccccccccsccccccsccccccccccccccccccccccccccc"
           style="stroke-width:0.897194" />
        <path
           id="path6-7"
           d="m -6.8202093,541.22488 c 0,0.21492 3.760168,1.41879 4.431858,1.41879 m -16.0956677,1.87657 c -0.537168,1.68962 -1.774587,5.3886 -2.750334,8.22006 -0.975747,2.83234 -2.324654,6.82487 -2.997261,8.87267 -0.672618,2.04868 -0.513748,4.2025 -0.667622,4.57729 -0.153874,0.37567 1.361884,-3.25145 2.414105,-4.72789 2.254625,-3.1652 5.710493,-14.33333 5.643228,-16.94726 m -2.332248,23.36237 c -2.014152,1.91065 -5.816683,7.28574 -6.431243,8.94478 2.037727,1.0606 8.291474,-7.26576 10.692237,-12.15149 m -35.636893,-0.54521 c -6.939874,2.70915 -14.415062,26.22224 -10.997646,34.59431 1.007989,2.46977 1.242945,2.36581 0.527023,-0.23501 -0.761061,-2.76419 -0.350125,-7.25382 1.082636,-11.82993 0.111887,-2.19327 1.305945,-3.99936 1.96623,-5.83416 2.20303,-6.1705 4.458582,-9.4152 7.80966,-11.23323 2.526431,-1.36987 3.223927,-4.43371 1.240182,-5.44014 -0.775806,-0.39402 -0.678135,-0.39227 -1.628085,-0.0218 m 41.1415114,5.91544 c -2.3726124,5.93883 -3.8780474,8.72899 -7.7908174,12.12444 l -0.194598,-1.15263 m -22.671657,-4.90094 c -1.677843,6.31902 -8.487804,8.50137 -10.690835,3.42554 -0.539931,-1.24494 -0.808974,-0.78802 -1.080781,1.83901 -0.132676,1.27288 0.02578,1.87569 0.656946,2.50472 0.346444,0.34508 0.808057,0.92081 1.025506,1.27987 1.484346,2.44968 6.648705,1.55945 9.085774,-1.56643 1.558056,-1.99801 2.231591,-4.84257 1.893447,-7.99466 l -0.217449,-2.02247 -0.672608,2.53442 m 10.251319,8.38426 c -1.173844,4.19521 -3.645918,15.40049 -3.508633,15.90632 0.08846,0.3285 0.0166,0.5967 -0.160319,0.5967 -0.177825,0 -0.283787,0.96013 -0.236792,2.13342 l 0.08568,2.13255 -1.078945,0.0996 c -2.53934,0.23501 -7.378453,-3.47969 -7.378453,-5.66379 0,-0.70939 -0.234029,-0.51195 -1.375622,1.16282 -7.12968,10.45919 -20.51371,9.9516 -26.247489,-0.99508 l -1.038404,-1.98315 c -2.771022,3.3521 -0.669353,3.56969 0.588772,7.04064 1.49909,4.30616 7.793071,8.30043 13.15,8.34411 4.829897,0.0393 12.520697,-4.02484 13.839198,-7.31321 0.447796,-1.11652 0.89282,-1.09205 1.416172,0.0761 1.804992,4.02747 10.170237,5.39733 8.709843,1.42665 -0.268116,-0.72949 -0.224812,-1.62148 0.161246,-3.30323 0.290231,-1.26677 0.678134,-2.99483 0.861496,-3.83964 0.820028,-3.76888 2.560528,-10.72041 2.72361,-10.87504 0.398965,-0.37828 0.901119,0.68056 2.486817,5.24445 3.884555,11.17732 6.202764,14.01315 11.755027,14.37833 2.879329,0.18958 7.1610037,-1.46684 7.1610037,-2.77118 0,-0.12493 0.488337,-0.69017 1.08539,-1.25629 3.777676,-3.58192 6.71505298,-10.23991 7.39872298,-16.77123 0.367633,-3.51202 -0.509525,-4.90985 -1.138838,-1.81541 -1.18489698,5.82279 -4.17755898,12.07716 -7.15270498,14.94793 -5.0916227,3.88587 -0.370572,0.72386 -3.6717147,2.55277 -5.914377,3.2875 -11.597471,-2.12556 -15.425832,-14.69371 -0.338145,-1.10865 -1.069719,-2.9293 -1.627158,-4.04669 l -1.013525,-2.03209 -0.368559,1.31746"
           stroke="none"
           fill="#313131"
           fill-rule="evenodd"
           sodipodi:nodetypes="cccccccccccccccccccccccccccccccccscccsccccccccccsccsssccccccc"
           style="stroke-width:0.897194" />
      </g>
      <ellipse
         style="fill:#8e5139;fill-opacity:1"
         id="path24320"
         cx="-107.96458"
         cy="450.48996"
         rx="6.9899101"
         ry="6.952774" />
      <ellipse
         style="fill:#8e5139;fill-opacity:1;stroke-width:1.30558"
         id="path24320-7"
         cx="-72.186981"
         cy="454.87857"
         rx="9.3860283"
         ry="8.8258524" />
      <ellipse
         style="fill:#8e5139;fill-opacity:1;stroke-width:1.40697"
         id="path24320-3"
         cx="-94.121468"
         cy="435.50424"
         rx="10.23268"
         ry="9.4017315" />
      <ellipse
         style="fill:#8e5139;fill-opacity:1;stroke-width:1.04317"
         id="path24320-3-6"
         cx="-77.139832"
         cy="419.79929"
         rx="7.5593429"
         ry="6.9960485" />
    </g>
  </g>
</svg>
